%YAML 1.1
%TAG !u! tag:unity3d.com,2011:
--- !u!162 &1
EditorUserSettings:
  m_ObjectHideFlags: 0
  serializedVersion: 4
  m_ConfigSettings:
    RecentlyUsedSceneGuid-0:
      value: 5252525252015a0f555a587112745944424f487b74717067747c4867e0b3636e
      flags: 0
    RecentlyUsedSceneGuid-1:
      value: 0204525104005f5f5e5d5526117b0b44424e4073752d2536747c1b31e7b3673c
      flags: 0
    RecentlyUsedSceneGuid-2:
      value: 02020157070050580c5b582340215c44464f4b297f7d7e64792d1c62b1e16269
      flags: 0
    RecentlyUsedSceneGuid-3:
      value: 5550060701065c085e5c5924162609444f4f4b297e70226674284564b1b8326d
      flags: 0
    RecentlyUsedSceneGuid-4:
      value: 5a5757560101590a5d0c0e24427b5d44434e4c7a7b7a23677f2b4565b7b5353a
      flags: 0
    vcSharedLogLevel:
      value: 0d5e400f0650
      flags: 0
  m_VCAutomaticAdd: 1
  m_VCDebugCom: 0
  m_VCDebugCmd: 0
  m_VCDebugOut: 0
  m_SemanticMergeMode: 2
  m_DesiredImportWorkerCount: 1
  m_StandbyImportWorkerCount: 1
  m_IdleImportWorkerShutdownDelay: 60000
  m_VCShowFailedCheckout: 1
  m_VCOverwriteFailedCheckoutAssets: 1
  m_VCProjectOverlayIcons: 1
  m_VCHierarchyOverlayIcons: 1
  m_VCOtherOverlayIcons: 1
  m_VCAllowAsyncUpdate: 1
  m_ArtifactGarbageCollection: 1
